{
  "notes": [
    {
      "id": 1,
      "title": "Note 1",
      "text": "Lorem ipsum dolor sit amet. ",
      "color": "rgba(188,28,83,.8)",
      "status": true
    },
    {
      "id": 2,
      "title": "Note 2",
      "text": "Lorem ipsum dolor sit amet.",
      "color": "rgba(105,188,183,.8)",
      "status": false
    },
    {
      "id": 3,
      "title": "Note 3",
      "text": "Lorem ipsum dolor sit amet.",
      "color": "rgba(62,13,179,.8)",
      "status": true
    },
    {
      "id": 4,
      "title": "Note 4",
      "text": "Lorem ipsum dolor sit amet.",
      "color": "rgba(83,23,104,.8)",
      "status": true
    }
  ]
}